<?xml version="1.0" encoding="utf-8"?>
<!-- Generator: Adobe Illustrator 22.1.0, SVG Export Plug-In . SVG Version: 6.00 Build 0)  -->
<svg version="1.1" id="Capa_1" xmlns="http://www.w3.org/2000/svg" xmlns:xlink="http://www.w3.org/1999/xlink" x="0px" y="0px"
	 viewBox="0 0 500 500" style="enable-background:new 0 0 500 500;" xml:space="preserve">
<style type="text/css">
	.st0{fill:none;stroke:#00C9F7;stroke-width:7.0416;stroke-miterlimit:10;}
	.st1{fill:#00C9F7;}
	.st2{fill:#FFFFFF;}
</style>
<circle class="st0" cx="251.2" cy="246.7" r="221.1"/>
<circle class="st1" cx="251.2" cy="246.7" r="193.5"/>
<g>
	<path class="st2" d="M380.3,280.7c0-0.5-0.1-1.1-0.3-1.6c-8.9-22.7-29.7-37.3-53-37.3h-35.1c-12.1,0-23.9,4.1-33.6,11.5h-14.1
		c-9.7-7.4-21.5-11.5-33.6-11.5h-35.1c-23.3,0-44.1,14.6-53,37.3c-0.2,0.5-0.3,1-0.3,1.6c-2.5,6.8-3.8,13.9-3.8,21.3l0.1,15.7
		c0,1.9,1.2,3.6,2.9,4.2l2.9,1c14.3,4.7,28.6,7.9,42.5,9.9v7.6c0,0.2,0,0.5,0.1,0.7l0.1,0.8c0.3,1.6,1.3,2.9,2.8,3.3l3.4,1.1
		c28.4,9.3,56.4,14,83,14c45.5,0,72.2-13.9,73.3-14.5l2.4-1.3c1.9-0.4,3.3-2.1,3.3-4.2v-7.6c14-2,28.4-5.2,42.9-10l2.9-1
		c1.7-0.6,2.9-2.2,2.9-4.2l0.1-15.7C384.1,294.6,382.8,287.5,380.3,280.7z M166.9,320.7v3.2c-13.1-2-26.6-5.1-40-9.5l0,0l-0.1-12.4
		c0-6.5,1.2-12.8,3.4-18.8c0.1-0.2,0.3-0.3,0.4-0.5c7.5-19.2,25.2-31.5,44.8-31.5h35.1c5.1,0,10.1,0.9,14.9,2.5
		C192.7,256.6,166.9,285.5,166.9,320.7z M327,325.1v8.8v3.8l-1.2,0.7c-1,0.6-25.8,13.6-69.6,13.6c-25.9,0-52.9-4.6-80.6-13.6
		l-0.6-0.2V334v-8.7V321c0-32.5,25.2-58.9,56.1-58.9h9.1h9.1h3.6h9.1h8.7c14.9,0,29.1,6.1,39.6,17.2c10.6,11.1,16.4,25.9,16.4,41.6
		v4.1H327z M375.5,314.4L375.5,314.4c-13.5,4.4-27.1,7.6-40.4,9.5v-3.2c0-17.9-6.7-34.9-18.9-47.6c-10.7-11.2-24.6-18-39.4-19.5
		c4.8-1.6,9.8-2.5,14.9-2.5h35.1c19.7,0,37.3,12.3,44.8,31.5c0.1,0.2,0.3,0.3,0.4,0.5c2.3,6,3.4,12.3,3.4,18.8L375.5,314.4z"/>
	<path class="st2" d="M349.5,167.1c-8.3-24.8-34.4-37.9-58.3-29.3c-2.3,0.8-3.5,3.5-2.7,5.9c0.8,2.4,3.3,3.7,5.6,2.8
		c19.2-7,40.2,3.6,46.9,23.7s-3.4,42-22.7,49c-9.7,3.5-20,2.5-28.6-1.9c5.9-8.7,9.3-19.3,9.3-30.8c0-29.5-23.1-53.5-51.3-53.5
		s-51.3,24.1-51.3,53.5c0,11.4,3.5,22.1,9.4,30.8c-7.8,4-16.9,5.2-25.9,2.6c-19.6-5.7-31.1-27-25.6-47.3
		c5.4-20.5,25.9-32.4,45.4-26.7c2.3,0.7,4.8-0.8,5.4-3.2c0.7-2.4-0.7-5-3.1-5.7c-24.3-7-49.5,7.8-56.3,33.1
		c-6.7,25.4,7.5,51.6,31.8,58.8c11.9,3.5,24.1,1.6,34.2-4.2c9.3,9.5,22,15.4,36,15.4c14.1,0,26.9-5.9,36.2-15.6
		c11,6.4,24.5,8.1,37.2,3.4C345.3,219.1,357.8,191.9,349.5,167.1 M282.7,212.1c-1.7,2.5-3.7,4.9-5.9,7c-7.6,7.3-17.6,11.7-28.8,11.7
		c-11,0-21-4.4-28.6-11.5c-2.2-2.1-4.2-4.4-5.9-6.9c-5-7.3-8.1-16.2-8.1-25.9c0-24.5,19.1-44.3,42.5-44.3s42.5,19.9,42.5,44.3
		C290.6,196,287.6,204.9,282.7,212.1"/>
</g>
</svg>
