<?xml version="1.0" encoding="utf-8"?>
<!-- Generator: Adobe Illustrator 22.1.0, SVG Export Plug-In . SVG Version: 6.00 Build 0)  -->
<svg version="1.1" id="Capa_1" xmlns="http://www.w3.org/2000/svg" xmlns:xlink="http://www.w3.org/1999/xlink" x="0px" y="0px"
	 viewBox="0 0 500 500" style="enable-background:new 0 0 500 500;" xml:space="preserve">
<style type="text/css">
	.st0{fill:#FFFFFF;}
</style>
<g>
	<path class="st0" d="M396.4,402.7v16.9v7.3l-2.4,1.3c-2,1.1-49.7,26.2-133.9,26.2c-49.8,0-102-8.8-155.1-26.2l-1.2-0.4v-8.2v-16.9
		v-8.3c0-62.5,48.4-113.3,108-113.3h17.6H247h6.9h17.7h16.9c28.8,0,55.9,11.8,76.3,33.2c20.4,21.4,31.7,49.9,31.6,80.1V402.7z
		 M88.1,417.5v14.8c0,0.5,0,0.9,0.1,1.4l0.2,1.5c0.5,3.1,2.6,5.5,5.4,6.4l6.5,2.1c54.7,17.9,108.4,27,159.8,27
		c87.7,0,138.9-26.8,141.1-28l4.6-2.5c3.7-0.8,6.3-4.1,6.3-8.1v-14.7v-17v-6.2c0-34.6-12.9-67.2-36.2-91.7
		c-20.6-21.7-47.3-35.3-75.9-38.1h-36h-27.1H201c-63.2,5.7-112.9,62-112.9,129.8V417.5z"/>
	<g>
		<g>
			<path class="st0" d="M244.3,29.8c-55.5,0-100.7,47.1-100.7,105c0,22.9,7.1,44,19.1,61.3c4.1,5.9,8.8,11.4,14,16.3
				c17.9,17,41.6,27.4,67.6,27.4c26.3,0,50.1-10.6,68.1-27.9c5.2-5,9.9-10.5,14-16.5c11.7-17.2,18.6-38.1,18.6-60.7
				C345,76.8,299.8,29.8,244.3,29.8z M311.1,184.1c-3.3,4.9-7.2,9.4-11.4,13.5c-14.6,14-34,22.7-55.4,22.7c-21.2,0-40.4-8.5-55-22.3
				c-4.2-4-8.1-8.4-11.4-13.3c-9.7-14-15.6-31.2-15.6-49.9c0-47.1,36.8-85.4,81.9-85.4c45.2,0,81.9,38.3,81.9,85.4
				C326.2,153.1,320.6,170.1,311.1,184.1z"/>
		</g>
	</g>
</g>
</svg>
